code/cpld/old/tb_rosco_cpld.vcd
$date
	Mon Jun  8 10:24:00 2026
$end
$version
	Icarus Verilog
$end
$timescale
	1ps
$end
$scope module tb_rosco_cpld $end
$var wire 1 ! BERR_pu $end
$var wire 8 " D [7:0] $end
$var wire 1 # DTACK_pu $end
$var wire 1 $ nIRQ2 $end
$var wire 1 % nIRQ3 $end
$var wire 1 & nIRQ5 $end
$var wire 1 ' nIRQ6 $end
$var wire 1 ( nODDROMSEL $end
$var wire 1 ) nODDRAMSEL $end
$var wire 1 * nIOSEL $end
$var wire 1 + nEXPSEL $end
$var wire 1 , nEVENROMSEL $end
$var wire 1 - nEVENRAMSEL $end
$var wire 1 . WR $end
$var wire 1 / TXA $end
$var wire 1 0 SPI_nCS1 $end
$var wire 1 1 SPI_nCS $end
$var wire 1 2 SPI_SCK $end
$var wire 1 3 SPI_MOSI $end
$var wire 1 4 RESET $end
$var wire 1 5 LED_RED $end
$var wire 1 6 LED_GREEN $end
$var wire 1 7 IPL2 $end
$var wire 1 8 IPL1 $end
$var wire 1 9 IPL0 $end
$var wire 1 : HALT $end
$var wire 1 ; DTACK $end
$var wire 1 < BERR $end
$var reg 24 = ADDR [23:0] $end
$var reg 1 > AS $end
$var reg 8 ? D_drv [7:0] $end
$var reg 1 @ D_oe $end
$var reg 3 A FC [2:0] $end
$var reg 1 B HWRST $end
$var reg 1 C LDS $end
$var reg 1 D LGEXP $end
$var reg 1 E RW $end
$var reg 1 F RXA $end
$var reg 1 G SPI_MISO $end
$var reg 1 H SYS_CLK $end
$var reg 1 I UART_CLK $end
$var reg 1 J UDS $end
$var reg 1 K nIRQ2_drv $end
$var reg 1 L nIRQ3_drv $end
$var reg 1 M nIRQ5_drv $end
$var reg 1 N nIRQ6_drv $end
$var integer 32 O fail_count [31:0] $end
$var integer 32 P pass_count [31:0] $end
$scope module dut $end
$var wire 1 Q A1 $end
$var wire 1 R A18 $end
$var wire 1 S A19 $end
$var wire 1 T A2 $end
$var wire 1 U A20 $end
$var wire 1 V A21 $end
$var wire 1 W A22 $end
$var wire 1 X A23 $end
$var wire 1 Y A3 $end
$var wire 1 Z A4 $end
$var wire 1 > AS $end
$var wire 8 [ D [7:0] $end
$var wire 1 \ FC0 $end
$var wire 1 ] FC1 $end
$var wire 1 ^ FC2 $end
$var wire 1 B HWRST $end
$var wire 1 C LDS $end
$var wire 1 6 LED_GREEN $end
$var wire 1 5 LED_RED $end
$var wire 1 D LGEXP $end
$var wire 1 E RW $end
$var wire 1 F RXA $end
$var wire 1 G SPI_MISO $end
$var wire 1 3 SPI_MOSI $end
$var wire 1 1 SPI_nCS $end
$var wire 1 0 SPI_nCS1 $end
$var wire 1 H SYS_CLK $end
$var wire 1 I UART_CLK $end
$var wire 1 J UDS $end
$var wire 1 . WR $end
$var wire 1 _ addr_hi_1110 $end
$var wire 1 ` cpu_space $end
$var wire 1 a cpusp $end
$var wire 1 b io_sel $end
$var wire 1 - nEVENRAMSEL $end
$var wire 1 , nEVENROMSEL $end
$var wire 1 + nEXPSEL $end
$var wire 1 * nIOSEL $end
$var wire 1 $ nIRQ2 $end
$var wire 1 % nIRQ3 $end
$var wire 1 & nIRQ5 $end
$var wire 1 ' nIRQ6 $end
$var wire 1 ) nODDRAMSEL $end
$var wire 1 ( nODDROMSEL $end
$var wire 1 c ram_range $end
$var wire 1 d rom_fetch $end
$var wire 1 e spi_start $end
$var wire 1 f uart_rd $end
$var wire 1 g uart_sel $end
$var wire 1 h uart_wr $end
$var wire 1 i wden $end
$var wire 4 j reg_sel [3:0] $end
$var wire 1 k boot_r $end
$var wire 1 l bit_en $end
$var wire 1 / TXA $end
$var wire 1 2 SPI_SCK $end
$var wire 1 4 RESET $end
$var wire 1 7 IPL2 $end
$var wire 1 8 IPL1 $end
$var wire 1 9 IPL0 $end
$var wire 1 : HALT $end
$var wire 1 ; DTACK $end
$var wire 1 < BERR $end
$var parameter 8 m IVR_VAL $end
$var reg 3 n ax [2:0] $end
$var reg 5 o baud_ctr [4:0] $end
$var reg 1 k booted $end
$var reg 1 p cpu_rd_rba $end
$var reg 8 q dbus_out [7:0] $end
$var reg 1 r halt_rel $end
$var reg 3 s ipl_r [2:0] $end
$var reg 1 t opr2n $end
$var reg 1 u opr3n $end
$var reg 1 v opr4n $end
$var reg 1 w opr5n $end
$var reg 1 x opr6n $end
$var reg 1 y opr7n $end
$var reg 1 z pberr $end
$var reg 1 { reset_rel $end
$var reg 4 | rx_bctr [3:0] $end
$var reg 1 } rx_busy $end
$var reg 1 ~ rx_ready $end
$var reg 4 !" rx_sctr [3:0] $end
$var reg 1 "" rx_seen_high $end
$var reg 8 #" rx_shreg [7:0] $end
$var reg 1 $" samp_en_r $end
$var reg 3 %" spi_bit_ctr [2:0] $end
$var reg 1 &" spi_busy $end
$var reg 1 '" spi_busy_s0 $end
$var reg 1 (" spi_busy_s1 $end
$var reg 1 )" spi_clk_div $end
$var reg 1 *" spi_req $end
$var reg 1 +" spi_req_prev $end
$var reg 1 ," spi_req_s0 $end
$var reg 1 -" spi_req_s1 $end
$var reg 8 ." spi_rx_shreg [7:0] $end
$var reg 4 /" tx_bctr [3:0] $end
$var reg 8 0" tx_buf [7:0] $end
$var reg 1 1" tx_busy $end
$var reg 1 2" tx_load $end
$var reg 8 3" tx_shreg [7:0] $end
$var reg 4 4" wdq [3:0] $end
$upscope $end
$scope task bus_idle $end
$upscope $end
$scope task bus_read $end
$var reg 24 5" addr [23:0] $end
$var reg 3 6" fc [2:0] $end
$upscope $end
$scope task check_asserted $end
$var reg 257 7" msg [256:0] $end
$var reg 1 8" sig $end
$upscope $end
$scope task check_deasserted $end
$var reg 257 9" msg [256:0] $end
$var reg 1 :" sig $end
$upscope $end
$scope task check_sig $end
$var reg 1 ;" expected $end
$var reg 1 <" got $end
$var reg 257 =" msg [256:0] $end
$upscope $end
$scope task do_reset $end
$upscope $end
$upscope $end
$enddefinitions $end
$comment Show the parameter values. $end
$dumpall
b1111 m
$end
#0
$dumpvars
bx ="
x<"
x;"
x:"
bx 9"
x8"
bx 7"
bx 6"
bx 5"
b0 4"
b0 3"
02"
01"
b0 0"
b0 /"
b0 ."
0-"
0,"
0+"
0*"
0)"
0("
0'"
0&"
b0 %"
0$"
bx #"
0""
b0 !"
0~
0}
b0 |
0{
0z
0y
0x
0w
0v
0u
0t
b111 s
0r
b0 q
0p
b0 o
b0 n
0l
0k
b0 j
0i
0h
0g
0f
0e
0d
1c
0b
1a
0`
0_
1^
0]
1\
bz [
0Z
0Y
0X
0W
0V
0U
0T
0S
0R
0Q
b0 P
b0 O
1N
1M
1L
1K
1J
0I
0H
1G
1F
1E
0D
1C
0B
b101 A
0@
b0 ?
1>
b0 =
z<
z;
0:
19
18
17
16
15
04
13
12
11
10
1/
0.
1-
1,
1+
1*
1)
1(
1'
1&
1%
1$
1#
bz "
1!
$end
#50000
b10 P
0;"
0<"
b101001001000101010100110100010101010100001000000110010001110010011010010111011001100101011011100010000001101100011011110111011100100000011001000111010101110010011010010110111001100111001000000111001001100101011100110110010101110100 ="
#62000
1H
#124000
0H
#135000
b1 o
1I
#186000
z4
z:
1{
1r
b1 n
1B
1H
#248000
0H
#270000
0I
#310000
b10 n
1H
#372000
0H
#405000
1""
1$"
b10 o
1I
#434000
b11 n
b100 P
z;"
z<"
b101001001000101010100110100010101010100001000000111001001100101011011000110010101100001011100110110010101100100001000000110000101100110011101000110010101110010001000000111001001100101011100110110010101110100 ="
1H
#439000
1.
0E
b101 P
0;"
0<"
b10101110101001000111101001100000010000001110111011010000110010101101110001000000101001001010111001111010011000100100000001010000111001001100101011000010110010000101001 ="
#444000
04
0:
b0 n
0{
0r
0""
0.
0B
1E
b110 P
1;"
1<"
b1010111010100100011110100110001001000000111011101101000011001010110111000100000010100100101011100111101001100000010000000101000011101110111001001101001011101000110010100101001 ="
#496000
0H
#540000
0I
#558000
1H
#620000
0H
#675000
0$"
b11 o
1I
#682000
z4
z:
b1 n
1{
1r
1B
1H
#744000
0H
#806000
b10 n
1H
#810000
0I
#868000
0H
#930000
b11 n
0#
0;
0,
0(
1i
0>
0C
0J
b101 6"
b0 5"
1H
#940000
1#
z;
1(
1,
0i
1C
1J
1>
1:"
b10010000001100010011011000110111101100011011010110110010101100100001000000110000101110100001000000010010000110000001100000011000000110000001100000011000000100000011010010110111000100000011000100110111101101111011101000010000001101101011011110110010001100101 9"
b1001 P
0;"
0<"
b100010001010100010000010100001101001011001110100010000001010010010011110100110100100000011100110110100001100001011001000110111101110111001000000111001001100101011100110111000001101111011011100110010001110011 ="
08"
b100010001010100010000010100001101001011001110100010000001010010010011110100110100100000011100110110100001100001011001000110111101110111001000000111001001100101011100110111000001101111011011100110010001110011 7"
#945000
1""
1$"
b100 o
1I
#950000
0#
0;
0,
0(
1i
0>
0C
0J
b100000000000000000 =
b100000000000000000 5"
#960000
1#
z;
1(
1,
0i
1C
1J
1>
b1010 P
b10000001100010011011000110111101100011011010110110010101100100001000000110000101110100001000000010010000110000001100100011000000110000001100000011000000100000011010010110111000100000011000100110111101101111011101000010000001101101011011110110010001100101 9"
#970000
0#
0;
0-
0)
1i
1.
0>
0C
0J
0E
b0 =
#980000
1#
z;
1-
1)
0i
0.
1E
1C
1J
1>
b1011 P
b10111010001100101001000000110000101110100001000000010010000110000001100000011000000110000001100000011000000100000011101110110111101110010011010110111001100100000011010010110111000100000011000100110111101101111011101000010000001101101011011110110010001100101 ="
b10111010001100101001000000110000101110100001000000010010000110000001100000011000000110000001100000011000000100000011101110110111101110010011010110111001100100000011010010110111000100000011000100110111101101111011101000010000001101101011011110110010001100101 7"
#990000
0#
0;
0-
0)
1,
1(
1i
1S
0>
0C
0J
b10000000000000000000 =
b10000000000000000000 5"
#992000
0H
#1000000
1#
z;
1)
1-
0i
1C
1J
1>
b1100 P
b10010000000101000001001000011000000111000001100000011000000110000001100000010100100100000011100100110010101100001011001000110000101100010011011000110010100100000011010010110111000100000011000100110111101101111011101000010000001101101011011110110010001100101 ="
b10010000000101000001001000011000000111000001100000011000000110000001100000010100100100000011100100110010101100001011001000110000101100010011011000110010100100000011010010110111000100000011000100110111101101111011101000010000001101101011011110110010001100101 7"
#1010000
0#
0;
1+
0,
0(
0c
1d
1_
1i
0S
1V
1W
1X
0>
0C
0J
b111000000000000000000000 =
b111000000000000000000000 5"
#1054000
1k
b1 4"
b100 n
1H
#1080000
0I
#1116000
0H
#1178000
b10 4"
b101 n
1#
z;
1(
1,
0i
1C
1J
1>
1H
#1188000
0#
0;
0-
0)
1c
0d
0_
1i
0V
0W
0X
0>
0C
0J
b0 =
b0 5"
#1198000
1#
z;
1)
1-
0i
1C
1J
1>
b100010001010100010000010100001101001011001110100010000001010010010000010100110100100000011100100110010101110011011100000110111101101110011001000111001100100000011100000110111101110011011101000010110101100010011011110110111101110100 ="
b100010001010100010000010100001101001011001110100010000001010010010000010100110100100000011100100110010101110011011100000110111101101110011001000111001100100000011100000110111101110011011101000010110101100010011011110110111101110100 7"
b1111 P
b10010000001010010010011110100110100100000011100110110100001100001011001000110111101110111001000000110000101110100001000000010010000110000001100000011000000110000001100000011000000100000011100000110111101110011011101000010110101100010011011110110111101110100 9"
#1208000
0#
0;
0-
0)
1i
0>
0C
0J
#1215000
0$"
b101 o
1I
#1218000
1#
z;
1)
1-
0i
1C
1J
1>
b1101110010001010101100001010000010100110100010101001100001110100010000000100000001000000010000000100000011011100110111101110100001000000100010101011000010100000010000001100001011101000010000000100100001100000011000000110000001100000011000000110000 9"
b10100 P
b1000100010101000100000101000011010010110011101000100000001000000010000000100000001000000010000000100000010100100100000101001101001000000111001001100101011100110111000001101111011011100110010001110011 ="
b1000100010101000100000101000011010010110011101000100000001000000010000000100000001000000010000000100000010100100100000101001101001000000111001001100101011100110111000001101111011011100110010001110011 7"
#1228000
0#
0;
0-
0)
1i
b1111 j
1Q
1T
1Y
1Z
1R
1S
0>
0C
0J
b11111111111111111110 =
b11111111111111111110 5"
#1238000
1#
z;
1)
1-
0i
1C
1J
1>
b10101 P
b1101110010001010101011001000101010011100101001001000001010011010101001101000101010011000011101000100000011101000110111101110000001000000110111101100110001000000101001001000001010011010010000000100100001100000100011001000110010001100100011001000101 ="
b1101110010001010101011001000101010011100101001001000001010011010101001101000101010011000011101000100000011101000110111101110000001000000110111101100110001000000101001001000001010011010010000000100100001100000100011001000110010001100100011001000101 7"
#1240000
0H
#1248000
0#
0;
1+
0,
0(
0c
1d
1_
1i
b0 j
0Q
0T
0Y
0Z
0R
0S
1V
1W
1X
0>
0C
0J
b111000000000000000000000 =
b111000000000000000000000 5"
#1258000
1#
z;
1(
1,
0i
1C
1J
1>
b1101110010001010101011001000101010011100101001001000001010011010101001101000101010011000011101000100000011011100110111101110100001000000101001001000001010011010010000001100001011101000010000000100100010001010011000000110000001100000011000000110000 9"
b11001 P
b1000100010101000100000101000011010010110011101000100000001000000010000000100000001000000010000000100000010100100100111101001101001000000111001001100101011100110111000001101111011011100110010001110011 ="
b1000100010101000100000101000011010010110011101000100000001000000010000000100000001000000010000000100000010100100100111101001101001000000111001001100101011100110111000001101111011011100110010001110011 7"
#1268000
0#
0;
0,
0(
1i
1S
0>
0C
0J
b111010000000000000000000 =
b111010000000000000000000 5"
#1278000
1#
z;
1(
1,
0i
1C
1J
1>
b11010 P
b100010101010110010001010100111001010010010011110100110101010011010001010100110000111010001000000010010001000101001110000011000000110000001100000011000000100000011010010110111000100000010100100100111101001101001000000111001001100001011011100110011101100101 ="
b100010101010110010001010100111001010010010011110100110101010011010001010100110000111010001000000010010001000101001110000011000000110000001100000011000000100000011010010110111000100000010100100100111101001101001000000111001001100001011011100110011101100101 7"
#1288000
0+
0d
0_
1i
0S
1U
0V
0W
0X
0>
0C
0J
b100000000000000000000 =
b100000000000000000000 5"
#1298000
1+
0i
1C
1J
1>
z:"
b100010001010100010000010100001101001011001110100010000001101110011011110010000001000100010101000100000101000011010010110010000001110111011010010111010001101000011011110111010101110100001000000100110001000111010001010101100001010000 9"
b11101 P
b1101110010001010101100001010000010100110100010101001100001110100010000000100100001100010011000000110000001100000011000000110000 ="
b1101110010001010101100001010000010100110100010101001100001110100010000000100100001100010011000000110000001100000011000000110000 7"
#1302000
b0 4"
b110 n
1H
#1308000
0#
0;
0+
1i
1D
0>
0C
0J
#1318000
1#
z;
1+
0i
0D
1C
1J
1>
b11110 P
b10100101100111010001000000110010101111000011100000110000101101110011100110110100101101111011011100010000001110010011001010111001101110000011011110110111001100100011100110010000001110111011010010111010001101000001000000100110001000111010001010101100001010000 ="
b10100101100111010001000000110010101111000011100000110000101101110011100110110100101101111011011100010000001110010011001010111001101110000011011110110111001100100011100110010000001110111011010010111010001101000001000000100110001000111010001010101100001010000 7"
#1328000
1+
0*
1b
1i
1V
1W
1X
0>
b111100000000000000000000 =
#1338000
0i
1>
1:"
b11011100100010101011000010100000101001101000101010011000011101000100000011011100110111101110100001000000100010101011000010100000010000001100001011101000010000001001001010011110010000001100001011001000110010001110010 9"
b100001 P
b11011100100100101001111010100110100010101001100001110100010000000100100010001100011000000110000001100000011000000110000001000000110100101101110001000000100100101001111001000000111001001100001011011100110011101100101 ="
b11011100100100101001111010100110100010101001100001110100010000000100100010001100011000000110000001100000011000000110000001000000110100101101110001000000100100101001111001000000111001001100001011011100110011101100101 7"
#1348000
1#
z;
1-
1)
0a
1`
1c
1*
1i
0b
1]
0U
0V
0W
0X
0>
0C
0J
b111 A
b0 =
b111 6"
b0 5"
#1350000
0I
#1358000
0i
1C
1J
1>
z:"
b100011 P
b1000100010101000100000101000011010010110011101000100000001000000010000000100000001000000010000000100000011011100110111100100000011100100110010101110011011100000110111101101110011100110110010100100000010001100100001100111101001100010011000100110001 9"
#1364000
0H
#1368000
0c
1_
1i
1V
1W
1X
0>
0C
0J
b111000000000000000000000 =
b111000000000000000000000 5"
#1378000
0i
1C
1J
1>
b100101 P
z:"
b1000100010101000100000101000011010010110011101000100000001000000010000000100000001000000010000000100000011011100110111100100000011100100110010101110011011100000110111101101110011100110110010100100000010001100100001100111101001100010011000100110001 9"
#1398000
08
b101 s
0$
0K
b101000 P
1;"
1<"
b10010010101000001001100001100000010000001101001011001000110110001100101 ="
#1408000
18
b111 s
1$
1K
1;"
1<"
b101011 P
b1001001010100000100110000110000001110100010000001101100011001010111011001100101011011000010000000110010 ="
#1418000
08
09
b100 s
0%
0L
#1426000
b111 n
1H
#1428000
18
19
b111 s
1%
1L
0;"
0<"
b101110 P
b1001001010100000100110000110000001110100010000001101100011001010111011001100101011011000010000000110011 ="
#1438000
07
09
b10 s
0&
0M
#1448000
17
19
b111 s
1&
1M
0;"
0<"
b110001 P
b1001001010100000100110000110000001110100010000001101100011001010111011001100101011011000010000000110101 ="
#1458000
07
08
b1 s
0'
0N
#1468000
17
18
b111 s
1'
1N
1;"
1<"
b110100 P
b1001001010100000100110000110000001110100010000001101100011001010111011001100101011011000010000000110110 ="
#1478000
07
08
b1 s
0$
0K
0'
0N
#1485000
1$"
b110 o
1I
#1488000
17
18
b111 s
1$
1K
1'
1N
b110111 P
1;"
1<"
b1001001010100000100110000110000001000000111000001110010011010010110111101110010011010010111010001111001001110100010000001101110010010010101001001010001001101100010000001110111011010010110111001110011 ="
0H
#1498000
07
09
b10 s
0%
0L
0&
0M
#1508000
17
19
b111 s
1%
1L
1&
1M
b111010 P
0;"
0<"
b100100101010000010011000011000000100000011100000111001001101001011011110111001001101001011101000111100100111010001000000110111001001001010100100101000100110101001111100110111001001001010100100101000100110011 ="
#1518000
0#
0;
0)
1a
1c
0`
0_
1i
0]
0V
0W
0X
0>
0C
b101 A
b1 =
#1528000
1#
z;
1)
0i
1C
1>
1:"
b110111001000101010101100100010101001110010100100100000101001101010100110100010101001100001110100010000001010101010001000101001100100000011011100110111101110100001000000110000101110011011100110110010101110010011101000110010101100100 9"
b111100 P
b11011100100111101000100010001000101001001000001010011010101001101000101010011000011101000100000001000000100110001000100010100110010110101101111011011100110110001111001001000000101001001000001010011010010000001110010011001010110000101100100 ="
b11011100100111101000100010001000101001001000001010011010101001101000101010011000011101000100000001000000100110001000100010100110010110101101111011011100110110001111001001000000101001001000001010011010010000001110010011001010110000101100100 7"
#1538000
0#
0;
1+
0(
0c
1d
1_
1i
1V
1W
1X
0>
0C
b111000000000000000000001 =
#1548000
1#
z;
1(
0i
1C
1>
b110111001000101010101100100010101001110010100100100111101001101010100110100010101001100001110100010000001010101010001000101001100100000011011100110111101110100001000000110000101110011011100110110010101110010011101000110010101100100 9"
b111110 P
b11011100100111101000100010001000101001001001111010011010101001101000101010011000011101000100000001000000100110001000100010100110010110101101111011011100110110001111001001000000101001001001111010011010010000001110010011001010110000101100100 ="
b11011100100111101000100010001000101001001001111010011010101001101000101010011000011101000100000001000000100110001000100010100110010110101101111011011100110110001111001001000000101001001001111010011010010000001110010011001010110000101100100 7"
#1550000
b0 n
1H
#1558000
1i
0>
b111000000000000000000000 =
#1568000
0i
1>
b111111 P
b10101001101000101010011000011101000100000011011100110111101110100001000000110000101100011011101000110100101110110011001010010000001100001011101000010000000100100010001010011000000110000001100000011000000110000001000000010100001010010010011110100110100101001 9"
#1578000
1c
0d
0_
1i
0V
0W
0X
0>
b0 =
#1588000
0i
1>
b1000000 P
b10101001101000101010011000011101000100000011011100110111101110100001000000110000101100011011101000110100101110110011001010010000001100001011101000010000000100100001100000011000000110000001100000011000000110000001000000010100001010010010000010100110100101001 9"
#1598000
1+
0c
1d
1_
1i
b1111 j
1Q
1T
1Y
1Z
1R
1S
1V
1W
1X
0>
b111011111111111111111111 =
#1608000
0i
1>
b1000001 P
b10000001101110011011110111010000100000011000010110001101110100011010010111011001100101001000000110000101110100001000000010010001000101010001100100011001000110010001100100011000100000001010000111010001101111011100000010000001010010010011110100110100101001 9"
#1612000
0H
#1618000
b11000001 "
b11000001 [
0#
0;
1f
b11000001 q
0d
0_
0*
1i
1g
b10 j
1b
0Q
0Y
0Z
0R
0S
1U
0>
0C
b111100000000000000000100 =
#1620000
0I
#1628000
1#
z;
bz "
bz [
0f
0g
0i
1C
1>
b1000100 P
b10100101100111010001000000101010101000001010100100101010000100000011100100110010101110011011100000110111101101110011001000111001100100000011001100110111101110010001000000100001101010000010011000100010001001001010001000010000001110010011001010110000101100100 ="
b10100101100111010001000000101010101000001010100100101010000100000011100100110010101110011011100000110111101101110011001000111001100100000011001100110111101110010001000000100001101010000010011000100010001001001010001000010000001110010011001010110000101100100 7"
#1638000
b1111 "
b1111 [
0#
0;
1f
b1111 q
1i
1g
b1100 j
0T
1Y
1Z
0>
0C
b111100000000000000011000 =
#1648000
1#
z;
bz "
bz [
0f
0g
0i
1C
1>
b1000110 P
b101010001000001010000110100101100111010001000000101010101000001010100100101010000100000011100100110010101110011011100000110111101101110011001000111001100100000011001100110111101110010001000000100100101010110010100100010000001110010011001010110000101100100 ="
b101010001000001010000110100101100111010001000000101010101000001010100100101010000100000011100100110010101110011011100000110111101101110011001000111001100100000011001100110111101110010001000000100100101010110010100100010000001110010011001010110000101100100 7"
#1658000
b10000 "
b10000 [
0#
0;
1f
b10000 q
1i
1g
b1 j
1Q
0Y
0Z
0>
0C
b111100000000000000000010 =
#1668000
1#
z;
bz "
bz [
0f
0g
0i
1C
1>
0;"
0<"
b1001010 P
b101001101010010010000010010000001100010011010010111010000110010001000000111001101110000011010010101111101100010011101010111001101111001001111010011000000100000001010000110100101100100011011000110010100101001 ="
b101010001000001010000110100101100111010001000000101010101000001010100100101010000100000011100100110010101110011011100000110111101101110011001000111001100100000011001100110111101110010001000000101001101010010010000010010000001110010011001010110000101100100 7"
#1674000
b1 n
1H
#1678000
b100 "
b100 [
0#
0;
1f
b100 q
1i
1g
b1101 j
1Y
1Z
0>
0C
b111100000000000000011010 =
#1688000
1#
z;
bz "
bz [
0f
0g
0i
1C
1>
b1001011 P
1;"
1<"
b1001001010100000010000001100010011010010111010000110010001000000011110100100000010100110101000001001001010111110100110101001001010100110100111100100000001010000011000100101001 ="
#1698000
0#
0;
1h
b0 q
1i
1g
b1110 j
b100 "
b100 [
1.
0Q
1T
b100 ?
1@
0>
0C
0E
b111100000000000000011100 =
b1010000 P
b10101111101101110010000110101001100110001001000000110100001101001011001110110100000100000011000010110011001110100011001010111001000100000011100100110010101110011011001010111010000100000001010000110111101110000011100100011011101101110001111010011000000101001 ="
#1736000
0H
#1755000
0$"
b111 o
1I
#1798000
01
b1 4"
b10 n
1t
1H
#1803000
1#
z;
b100 "
b100 [
0h
0g
0i
0.
0f
1E
1C
1>
#1813000
bz "
bz [
0@
#1823000
0#
0;
1h
1i
1g
b1111 j
b100 "
b100 [
1.
1Q
1@
0>
0C
0E
b111100000000000000011110 =
b1010001 P
0;"
0<"
b101001101010000010010010101111101101110010000110101001100100000011011000110111101110111001000000110000101100110011101000110010101110010001000000101001101000101010101000100001101001101010001000010000001100010011010010111010000110010 ="
#1860000
0H
#1890000
0I
#1922000
11
0t
b10 4"
b11 n
1H
#1927000
1#
z;
b100 "
b100 [
0h
0g
0i
0.
0f
1E
1C
1>
#1937000
bz "
bz [
0@
#1947000
0#
0;
1h
1i
1g
b1110 j
b1001000 "
b1001000 [
1.
0Q
b1001000 ?
1@
0>
0C
0E
b111100000000000000011100 =
b1010010 P
1;"
1<"
b101001101010000010010010101111101101110010000110101001100100000011010000110100101100111011010000010000001100001011001100111010001100101011100100010000001010010010001010101001101000101010101000100001101001101010001000010000001100010011010010111010000110010 ="
#1984000
0H
#2025000
1$"
b1000 o
1I
#2046000
03
05
b11 4"
b100 n
1x
1u
1H
#2051000
1#
z;
b1001000 "
b1001000 [
0h
0g
0i
0.
0f
1E
1C
1>
#2061000
bz "
bz [
0@
#2071000
0#
0;
1h
1i
1g
b1111 j
b11111111 "
b11111111 [
1.
1Q
b11111111 ?
1@
0>
0C
0E
b111100000000000000011110 =
b1010101 P
1;"
1<"
b1010011010100000100100101011111011011100100001101010011001100010010000001110101011011100110001101101000011000010110111001100111011001010110010000100000001010000111001101110100011010010110110001101100001000000110100001101001011001110110100000101001 ="
#2108000
0H
#2160000
0I
#2170000
13
15
0x
0u
b100 4"
b101 n
1H
#2175000
1#
z;
b11111111 "
b11111111 [
0h
0g
0i
0.
0f
1E
1C
1>
#2185000
bz "
bz [
0@
#2195000
0+
1*
1i
b0 j
0b
0Q
0T
0Y
0Z
0U
0W
0X
0>
0C
0J
b1000000000000000000000 =
z:"
b10000100100010101010010010100100010000001101001011001000110110001100101001000000110001001100101011001100110111101110010011001010010000001110111011000010111010001100011011010000110010001101111011001110010000001110100011001010111001101110100 9"
b1011000 P
b101001101010000010010010101111101001101010011110101001101001001001000000110100001101001011001110110100000100000011000010110011001110100011001010111001000100000010100100100010101010011010001010101010001000011010011010100010000100000011000010110110001101100 ="
#2232000
0H
#2294000
b101 4"
b110 n
1H
#2295000
0$"
b1001 o
1I
#2356000
0H
#2418000
b110 4"
b111 n
1H
#2430000
0I
#2480000
0H
#2542000
b111 4"
b0 n
1H
#2565000
1$"
b1010 o
1I
#2604000
0H
#2666000
b1000 4"
b1 n
1H
#2700000
0I
#2728000
0H
#2790000
b1001 4"
b10 n
1H
#2835000
0$"
b1011 o
1I
#2852000
0H
#2914000
b1010 4"
b11 n
1H
#2970000
0I
#2976000
0H
#3038000
b1011 4"
b100 n
1H
#3100000
0H
#3105000
1$"
b1100 o
1I
#3162000
b1100 4"
b101 n
1H
#3224000
0H
#3240000
0I
#3286000
b1101 4"
b110 n
1H
#3348000
0H
#3375000
0$"
b1101 o
1I
#3410000
b1110 4"
b111 n
1H
#3472000
0H
#3510000
0I
#3534000
b1111 4"
b0 n
1H
#3596000
0H
#3645000
1$"
b1110 o
1I
#3658000
0!
0<
1z
b0 4"
b1 n
1H
#3720000
0H
#3780000
0I
#3782000
b1 4"
b10 n
1H
#3844000
0H
#3906000
b10 4"
b11 n
1H
#3915000
0$"
b1111 o
1I
#3968000
0H
#4030000
b11 4"
b100 n
1H
#4050000
0I
#4092000
0H
#4154000
b100 4"
b101 n
1H
#4185000
1$"
b10000 o
1I
#4216000
0H
#4278000
b101 4"
b110 n
1H
#4320000
0I
#4340000
0H
#4402000
b110 4"
b111 n
1H
#4407000
1+
0i
1C
1J
1>
b1011001 P
0;"
0<"
b111010001100101011100100010000001110111011000010111010001100011011010000110010001101111011001110010000001110100011010010110110101100101011011110111010101110100001000000010100000110001001110000010000001100011011011000110111101100011011010110111001100101001 ="
b111010001100101011100100010000001110111011000010111010001100011011010000110010001101111011001110010000001110100011010010110110101100101011011110111010101110100001000000010100000110001001110000010000001100011011011000110111101100011011010110111001100101001 7"
#4455000
0$"
b10001 o
1I
#4464000
0H
#4526000
1!
z<
0z
b0 4"
b0 n
1H
#4588000
0H
#4590000
0I
#4650000
b1 n
1H
#4655000
0+
1i
0>
0C
0J
b1011010 P
b100010101010010010100100010000001110010011001010110110001100101011000010111001101100101011001000010000001100001011001100111010001100101011100100010000001000001010100110010000001100100011001010110000101110011011100110110010101110010011101000110010101100100 9"
#4712000
0H
#4725000
1$"
b10010 o
1I
#4774000
b1 4"
b10 n
1H
#4836000
0H
#4860000
0I
#4898000
b10 4"
b11 n
1H
#4960000
0H
#4995000
0$"
b10011 o
1I
#5022000
b11 4"
b100 n
1H
#5084000
0H
#5130000
0I
#5146000
b100 4"
b101 n
1H
#5208000
0H
#5265000
1$"
b10100 o
1I
#5270000
b101 4"
b110 n
1+
0i
1C
1J
1>
1H
#5332000
0H
#5394000
b0 4"
b111 n
1H
#5399000
0#
0;
1h
0*
1g
1+
1b
bx q
1i
b11 j
b1010101 "
b1010101 [
1.
1Q
1T
1U
1W
1X
b1010101 ?
1@
0>
0C
0E
b111100000000000000000110 =
1;"
1<"
b101010001011000010000010010000001101001011001000110110001100101001000000110100001101001011001110110100000100000011000100110010101100110011011110111001001100101001000000101010001011000001000000111011101110010011010010111010001100101 ="
b1011100 P
b10000001100110011010010111001001100101011001000010000001100110011011110111001000100000011100110110100001101111011100100111010000100000001010000011010100101101011000110110110001101111011000110110101100101001001000000110001101111001011000110110110001100101 9"
#5400000
0I
#5456000
0H
#5518000
b1 4"
b0 n
12"
b1010101 0"
1H
#5523000
1#
z;
b1010101 "
b1010101 [
0h
0g
0i
0.
0f
1E
1C
1>
#5533000
bz "
bz [
0@
#5535000
b0 "
b0 [
0#
0;
1f
b0 q
1i
1g
b1 j
0T
0>
0C
b111100000000000000000010 =
b1011101 P
0;"
0<"
b10101000101100001000001001110100010000001110011011101000110000101110010011101000010000001100010011010010111010000100000001111010010000000110000 ="
0/
11"
b1010101 3"
0$"
b10101 o
1I
#5545000
1#
z;
bz "
bz [
0f
0g
0i
1C
1>
b1011110 P
b10100110101001001000001001000000101010001011000010100100100010001011001001111010011000000100000011001000111010101110010011010010110111001100111001000000101010001011000 ="
#5580000
0H
#5642000
02"
b0 4"
b1 n
1H
#5670000
0I
#5704000
0H
#5766000
b10 n
1H
#5805000
1$"
b10110 o
1I
#5828000
0H
#5890000
b11 n
1H
#5940000
0I
#5952000
0H
#6014000
b100 n
1H
#6075000
0$"
b10111 o
1I
#6076000
0H
#6138000
b101 n
1H
#6200000
0H
#6210000
0I
#6262000
b110 n
1H
#6324000
0H
#6345000
1$"
b11000 o
1I
#6386000
b111 n
1H
#6448000
0H
#6480000
0I
#6510000
b0 n
1H
#6572000
0H
#6615000
0$"
b11001 o
1I
#6634000
b1 n
1H
#6696000
0H
#6750000
0I
#6758000
b10 n
1H
#6820000
0H
#6882000
b11 n
1H
#6885000
1$"
b11010 o
1I
#6944000
0H
#7006000
b100 n
1H
#7020000
0I
#7068000
0H
#7130000
b101 n
1H
#7155000
0$"
b11011 o
1I
#7192000
0H
#7254000
b110 n
1H
